…
boot_straps
```

    ## # A tibble: 2,000 × 6
    ##    .id   term        estimate std.error statistic   p.value
    ##    <chr> <chr>          <dbl>     <dbl>     <dbl>     <dbl>
    ##  1 0001  (Intercept)     2.02    0.107       18.9 6.40e- 50
    ##  2 0001  x               3.03    0.0710      42.7 2.83e-116
    ##  3 0002  (Intercept)     1.92    0.0957      20.0 8.39e- 54
    ##  4 0002  x               3.14    0.0701      44.8 7.28e-121
    ##  5 0003  (Intercept)     1.91    0.101       18.9 5.66e- 50
    ##  6 0003  x               3.12    0.0689      45.3 6.46e-122
    ##  7 0004  (Intercept)     1.94    0.0907      21.3 4.66e- 58
    ##  8 0004  x               3.08    0.0680      45.4 3.99e-122
    ##  9 0005  (Intercept)     1.95    0.110       17.7 7.92e- 46
    ## 10 0005  x               3.13    0.0767      40.9 3.88e-112
    ## # ℹ 1,990 more rows
…
Bootstrap for better inference

``` r
manhattan_df|>
  modelr::bootstrap(10)|>
  mutate(
    
    strap= map(strap, as_tibble) ,
    models = map(strap, \(df) lm(price ~ stars + room_type, data = df)),
    results = map(models, broom::tidy))  |>
  select(.id, results )|>
  unnest(results)
```

    ## # A tibble: 40 × 6
    ##    .id   term                  estimate std.error statistic  p.value
    ##    <chr> <chr>                    <dbl>     <dbl>     <dbl>    <dbl>
    ##  1 01    (Intercept)               74.7     11.0       6.80 1.09e-11
    ##  2 01    stars                     18.5      2.32      7.98 1.61e-15
    ##  3 01    room_typePrivate room    -88.8      2.12    -41.9  0       
    ##  4 01    room_typeShared room    -112.       6.47    -17.4  4.61e-67
    ##  5 02    (Intercept)               72.3     10.6       6.84 8.42e-12
    ##  6 02    stars                     18.7      2.24      8.35 7.27e-17
    ##  7 02    room_typePrivate room    -86.0      2.07    -41.6  0       
    ##  8 02    room_typeShared room    -106.       6.40    -16.6  1.97e-61
    ##  9 03    (Intercept)               75.3     11.9       6.34 2.33e-10
    ## 10 03    stars                     18.8      2.52      7.48 7.78e-14
    ## # ℹ 30 more rows
…
