…
cv_results_df
```

    ## # A tibble: 100 × 9
    ##    train    test              .id   linear_mod smooth_mod wiggly_mod rmse_linear
    ##    <list>   <list>            <chr> <list>     <list>     <list>           <dbl>
    ##  1 <tibble> <tibble [45 × 3]> 001   <lm>       <gam>      <gam>            0.129
    ##  2 <tibble> <tibble [45 × 3]> 002   <lm>       <gam>      <gam>            0.133
    ##  3 <tibble> <tibble [45 × 3]> 003   <lm>       <gam>      <gam>            0.118
    ##  4 <tibble> <tibble [45 × 3]> 004   <lm>       <gam>      <gam>            0.123
    ##  5 <tibble> <tibble [45 × 3]> 005   <lm>       <gam>      <gam>            0.140
    ##  6 <tibble> <tibble [45 × 3]> 006   <lm>       <gam>      <gam>            0.141
    ##  7 <tibble> <tibble [45 × 3]> 007   <lm>       <gam>      <gam>            0.125
    ##  8 <tibble> <tibble [45 × 3]> 008   <lm>       <gam>      <gam>            0.131
    ##  9 <tibble> <tibble [45 × 3]> 009   <lm>       <gam>      <gam>            0.117
    ## 10 <tibble> <tibble [45 × 3]> 010   <lm>       <gam>      <gam>            0.136
    ## # ℹ 90 more rows
    ## # ℹ 2 more variables: rmse_smooth <dbl>, rmse_wiggly <dbl>
…
