…
The `modelr` package can be used to add residuals and fitted values to a
dataframe.

``` r
modelr::add_residuals(nyc_airbnb, fit)
```

    ## # A tibble: 40,492 × 6
    ##    price stars borough neighborhood room_type        resid
    ##    <dbl> <dbl> <fct>   <chr>        <fct>            <dbl>
    ##  1    99   5   Bronx   City Island  Private room      9.47
    ##  2   200  NA   Bronx   City Island  Private room     NA   
    ##  3   300  NA   Bronx   City Island  Entire home/apt  NA   
    ##  4   125   5   Bronx   City Island  Entire home/apt  35.5 
    ##  5    69   5   Bronx   City Island  Private room    -20.5 
    ##  6   125   5   Bronx   City Island  Entire home/apt  35.5 
    ##  7    85   5   Bronx   City Island  Entire home/apt  -4.53
    ##  8    39   4.5 Bronx   Allerton     Private room    -34.5 
    ##  9    95   5   Bronx   Allerton     Entire home/apt   5.47
    ## 10   125   4.5 Bronx   Allerton     Entire home/apt  51.5 
    ## # ℹ 40,482 more rows
…
**Tip: Do things once for a variable, then try to nest if its working,
then run the nesting code step by step to make sure no lines of code
break, and continu tidying**

We can then look at the effect of room type using the above df but
filtering by room_type.

``` r
manhatten_neighborhood_fit_df|> 
  filter(str_detect(term, "room_type"))
```

    ## # A tibble: 59 × 6
    ##    neighborhood      term                  estimate std.error statistic  p.value
    ##    <chr>             <chr>                    <dbl>     <dbl>     <dbl>    <dbl>
    ##  1 Battery Park City room_typePrivate room   -126.      27.6      -4.56 8.11e- 5
    ##  2 Battery Park City room_typeShared room    -160.      56.3      -2.84 7.96e- 3
    ##  3 Chinatown         room_typePrivate room   -109.      11.5      -9.52 1.03e-18
    ##  4 Chinatown         room_typeShared room    -143.      93.2      -1.54 1.25e- 1
    ##  5 Chelsea           room_typePrivate room   -133.      12.7     -10.5  2.13e-24
    ##  6 Chelsea           room_typeShared room    -153.      36.2      -4.24 2.49e- 5
    ##  7 Civic Center      room_typePrivate room    -95.3     28.9      -3.30 3.26e- 3
    ##  8 East Harlem       room_typePrivate room   -116.      26.1      -4.43 1.08e- 5
    ##  9 East Harlem       room_typeShared room    -144.      55.9      -2.57 1.04e- 2
    ## 10 East Village      room_typePrivate room   -113.       7.75    -14.6  4.70e-45
    ## # ℹ 49 more rows
…
